INDEX VERSION 1.131+D:\java\KT&TKPM_03\.metadata\.plugins\org.eclipse.jdt.core
2913447747.index
714518711.index
516549173.index
1318960528.index
3041862056.index
2811317667.index
3466488629.index
2599881158.index
618624302.index
3179021793.index
530814648.index
3125102776.index
1162592095.index
3683010189.index
3049257902.index
217823056.index
2285408514.index
3985400674.index
825537709.index
269802710.index
2298413793.index
2547271963.index
4213784093.index
450835675.index
2977973413.index
2242674064.index
2364338760.index
2308071037.index
559282181.index
4075310559.index
668699670.index
3528889040.index
1912367582.index
802983738.index
1658867481.index
1349868961.index
2060129698.index
3972997169.index
1562713688.index
3714324793.index
3416288166.index
570350659.index
2603956990.index
1436796168.index
2527247029.index
1042426509.index
699570686.index
3477086574.index
1134063886.index
2168439611.index
2450023074.index
3233009862.index
1095117316.index
1784764448.index
1332112212.index
1446083781.index
3965487986.index
3195878391.index
4163834080.index
4195137256.index
3240119146.index
4085780108.index
3261896440.index
2570938754.index
1765701199.index
1937317775.index
3046823141.index
3110542807.index
3261282297.index
1865797976.index
2845987531.index
1774045863.index
2753346118.index
363891817.index
4141281663.index
3407451074.index
1931967971.index
3043839119.index
1366144110.index
512698907.index
4231639520.index
1957385887.index
748539621.index
731446929.index
2424016044.index
